type,p,r,f1,auc
deprecated,0.672,0.6222222222222222,0.6461538461538461,0.7689573967030614
deprecated,0.6902654867256637,0.5064935064935064,0.5842696629213483,0.709542081295328
deprecated,0.7545454545454545,0.6058394160583942,0.6720647773279351,0.795193580057199
deprecated,0.7636363636363637,0.5637583892617449,0.6486486486486486,0.7558355493647376
deprecated,0.6071428571428571,0.4927536231884058,0.5439999999999999,0.7115515771526002
deprecated,0.6890756302521008,0.6074074074074074,0.6456692913385826,0.7444872618283023
deprecated,0.6727272727272727,0.5648854961832062,0.6141078838174274,0.7626256091775564
deprecated,0.6981132075471698,0.5103448275862069,0.5896414342629482,0.7220858895705522
deprecated,0.7410714285714286,0.5845070422535211,0.6535433070866141,0.7588876633293739
deprecated,0.7281553398058253,0.5555555555555556,0.6302521008403362,0.768529222864483
deprecated,0.7387387387387387,0.6074074074074074,0.6666666666666666,0.7724898308713337
deprecated,0.6944444444444444,0.5172413793103449,0.5928853754940712,0.7198857626401524
deprecated,0.7171717171717171,0.5220588235294118,0.6042553191489363,0.751859610123119
deprecated,0.6967213114754098,0.5629139072847682,0.6227106227106227,0.7378833256000338
deprecated,0.6842105263157895,0.5735294117647058,0.6239999999999999,0.7645990082079344
deprecated,0.6952380952380952,0.5069444444444444,0.5863453815261044,0.7475863821138211
deprecated,0.656,0.6259541984732825,0.640625,0.7361668176133178
deprecated,0.6448598130841121,0.5111111111111111,0.5702479338842974,0.7104046242774567
deprecated,0.6545454545454545,0.496551724137931,0.5647058823529412,0.72115506663846
deprecated,0.6842105263157895,0.4961832061068702,0.5752212389380531,0.7140423513175487
deprecated,0.7,0.5072463768115942,0.5882352941176471,0.7482736572890025
deprecated,0.7572815533980582,0.52,0.616600790513834,0.7453164556962025
deprecated,0.673469387755102,0.5196850393700787,0.5866666666666666,0.7552747204941924
deprecated,0.6283185840707964,0.5220588235294118,0.570281124497992,0.7161850205198358
deprecated,0.7327586206896551,0.5782312925170068,0.6463878326996197,0.7502640807875945
deprecated,0.7128712871287128,0.6101694915254238,0.6575342465753425,0.7880909901873328
deprecated,0.6752136752136753,0.5851851851851851,0.626984126984127,0.7591736244915436
deprecated,0.6638655462184874,0.6171875,0.6396761133603239,0.7462239583333333
deprecated,0.6481481481481481,0.5147058823529411,0.5737704918032787,0.7172110123119015
deprecated,0.7227722772277227,0.5214285714285715,0.6058091286307054,0.7715561224489796
deprecated,0.7027027027027027,0.5909090909090909,0.6419753086419754,0.7763214531680441
deprecated,0.6363636363636364,0.5384615384615384,0.5833333333333334,0.7168044077134986
deprecated,0.6990291262135923,0.5070422535211268,0.5877551020408164,0.7509757339216019
deprecated,0.6990291262135923,0.5255474452554745,0.6000000000000001,0.7473641524736415
deprecated,0.7192982456140351,0.6119402985074627,0.6612903225806452,0.7563690169840452
deprecated,0.6754385964912281,0.5273972602739726,0.5923076923076923,0.7029849484187384
deprecated,0.7155963302752294,0.527027027027027,0.6070038910505836,0.7581503378378378
deprecated,0.6890756302521008,0.6029411764705882,0.6431372549019608,0.7400393296853626
deprecated,0.6896551724137931,0.5882352941176471,0.6349206349206349,0.7583575581395349
deprecated,0.7,0.5,0.5833333333333334,0.7456174777603349
deprecated,0.7203389830508474,0.5821917808219178,0.6439393939393939,0.7517123287671232
deprecated,0.7131147540983607,0.5612903225806452,0.628158844765343,0.7381825848619018
deprecated,0.7096774193548387,0.6616541353383458,0.6848249027237354,0.7974650912996778
deprecated,0.6974789915966386,0.564625850340136,0.6240601503759399,0.7130603794312756
deprecated,0.6696428571428571,0.6097560975609756,0.6382978723404255,0.7843770599868161
deprecated,0.7345132743362832,0.6014492753623188,0.6613545816733069,0.7775788576300086
deprecated,0.711864406779661,0.5833333333333334,0.6412213740458015,0.7512279810298103
deprecated,0.76,0.5507246376811594,0.638655462184874,0.7567135549872123
deprecated,0.7129629629629629,0.5273972602739726,0.6062992125984251,0.7526002029426687
deprecated,0.6607142857142857,0.5211267605633803,0.5826771653543307,0.6909256745291024
