type,p,r,f1,auc
multiple,0.7107142857142857,0.5482093663911846,0.6189735614307932,0.7455163883735312
multiple,0.6903914590747331,0.5480225988700564,0.611023622047244,0.7453470842667342
multiple,0.7358490566037735,0.5524079320113314,0.6310679611650485,0.7760066522909531
multiple,0.6777777777777778,0.5289017341040463,0.5941558441558442,0.7437179360345972
multiple,0.7178571428571429,0.5775862068965517,0.6401273885350318,0.7586242198311164
multiple,0.7343173431734318,0.5292553191489362,0.6151468315301392,0.7487052995003649
multiple,0.7407407407407407,0.554016620498615,0.6339144215530903,0.7518771882953443
multiple,0.7410071942446043,0.5421052631578948,0.6261398176291794,0.7515649122807018
multiple,0.7430830039525692,0.5179063360881543,0.6103896103896104,0.7514863383369876
multiple,0.7197231833910035,0.5909090909090909,0.6489859594383776,0.7451817335889916
multiple,0.6823104693140795,0.5446685878962536,0.6057692307692308,0.7252147256597163
multiple,0.7052631578947368,0.5630252100840336,0.6261682242990654,0.7373738440099658
multiple,0.7021276595744681,0.5380434782608695,0.6092307692307692,0.7445371306594765
multiple,0.7035714285714286,0.5628571428571428,0.6253968253968254,0.7451851851851852
multiple,0.6748251748251748,0.5710059171597633,0.6185897435897436,0.7504505271522427
multiple,0.7039473684210527,0.5783783783783784,0.6350148367952523,0.748932958932959
multiple,0.6942446043165468,0.561046511627907,0.6205787781350482,0.735836445425225
multiple,0.7022900763358778,0.5183098591549296,0.5964343598055104,0.7290352112676056
multiple,0.7072243346007605,0.5329512893982808,0.607843137254902,0.7580737363614549
multiple,0.7480314960629921,0.5428571428571428,0.6291390728476821,0.7680458553791887
multiple,0.7034220532319392,0.5377906976744186,0.6095551894563426,0.7353660951734284
multiple,0.73,0.6203966005665722,0.6707503828483921,0.7760066522909531
multiple,0.7586206896551724,0.5625,0.6460032626427407,0.7771437232122717
multiple,0.6463878326996197,0.5014749262536873,0.5647840531561462,0.7427920070342636
multiple,0.7183098591549296,0.576271186440678,0.6394984326018808,0.755596883497471
multiple,0.735632183908046,0.5175202156334232,0.6075949367088607,0.7325920934411501
multiple,0.6931034482758621,0.579250720461095,0.6310832025117739,0.7411213765044923
multiple,0.7073170731707317,0.5686274509803921,0.6304347826086957,0.7504469124333151
multiple,0.6909722222222222,0.5784883720930233,0.629746835443038,0.7444477451479659
multiple,0.7107142857142857,0.5718390804597702,0.6337579617834395,0.7504906944562117
multiple,0.714828897338403,0.5417867435158501,0.6163934426229507,0.7542344747697349
multiple,0.6982456140350877,0.5669515669515669,0.6257861635220124,0.7344574201009845
multiple,0.7564575645756457,0.5790960451977402,0.6559999999999999,0.7743740930160474
multiple,0.6795774647887324,0.5451977401129944,0.6050156739811912,0.7232483762345548
multiple,0.7404255319148936,0.4915254237288136,0.5908319185059423,0.7488517407047354
multiple,0.7,0.5431034482758621,0.6116504854368933,0.7354203733514079
multiple,0.7391304347826086,0.5811965811965812,0.6507177033492824,0.785020168683535
multiple,0.7054545454545454,0.5527065527065527,0.6198083067092651,0.7506064709035006
multiple,0.7318840579710145,0.5564738292011019,0.6322378716744914,0.7598245909934221
multiple,0.7035714285714286,0.5811209439528023,0.6365105008077544,0.7531342182890856
multiple,0.7246376811594203,0.5524861878453039,0.6269592476489028,0.7669330690396863
multiple,0.7490494296577946,0.5267379679144385,0.618524332810047,0.7543931674316111
multiple,0.753731343283582,0.5415549597855228,0.6302652106084243,0.7328474376429965
multiple,0.6818181818181818,0.5202312138728323,0.5901639344262295,0.7290162104102774
multiple,0.6946564885496184,0.5321637426900585,0.6026490066225166,0.7494229925095224
multiple,0.6928571428571428,0.5434173669467787,0.6091051805337518,0.7350301929817153
multiple,0.734982332155477,0.5652173913043478,0.6390168970814132,0.7369396697000337
multiple,0.6907216494845361,0.5726495726495726,0.6261682242990654,0.7574715804913825
multiple,0.7637795275590551,0.5315068493150685,0.6268174474959612,0.7524446786090622
multiple,0.714828897338403,0.5402298850574713,0.6153846153846154,0.7460426727668107
