all,0.7386215864759428,0.5904365904365905,0.656268053148469,0.7972136446401152
all,0.7384806973848069,0.6222455403987408,0.6753986332574032,0.803421389235683
all,0.6748166259168704,0.5948275862068966,0.6323024054982818,0.7808054314456444
all,0.7301587301587301,0.6127049180327869,0.6662952646239554,0.799736654924807
all,0.7151442307692307,0.609007164790174,0.6578220011055831,0.7835832078246315
all,0.6965352449223416,0.6357688113413305,0.6647662485746865,0.7885123226198425
all,0.6798088410991637,0.609860664523044,0.6429378531073447,0.782160542458015
all,0.7095990279465371,0.6166842661034847,0.6598870056497175,0.790795537157823
all,0.7100591715976331,0.6230529595015576,0.663716814159292,0.7825754893445038
all,0.6889714993804213,0.5828092243186582,0.6314593980692789,0.7818723794549266
