resource,0.7307692307692307,0.3154981549815498,0.4407216494845361,0.7497110212065976
resource,0.7094017094017094,0.33266533066132264,0.45293315143246926,0.7533714732369303
resource,0.6988416988416989,0.3507751937984496,0.4670967741935484,0.7649590217419675
resource,0.7479338842975206,0.34150943396226413,0.46891191709844554,0.7691419433640835
resource,0.7021276595744681,0.3179190751445087,0.43766578249336874,0.7636057657130314
resource,0.6745098039215687,0.33076923076923076,0.44387096774193546,0.7563661317567567
resource,0.724,0.34807692307692306,0.4701298701298701,0.7671574519230769
resource,0.6756756756756757,0.3431372549019608,0.4551365409622887,0.7450216770125135
resource,0.7310924369747899,0.3258426966292135,0.4507772020725389,0.7640881590319792
resource,0.6902985074626866,0.3592233009708738,0.4725415070242657,0.7548645757632668
