feature,0.7496012759170654,0.715372907153729,0.7320872274143303,0.7866533485540335
feature,0.7637540453074434,0.696165191740413,0.7283950617283951,0.8004785985190537
feature,0.7753378378378378,0.6830357142857143,0.7262658227848102,0.7927588466579292
feature,0.763458401305057,0.6933333333333334,0.7267080745341614,0.7902842695093618
feature,0.7606973058637084,0.7058823529411765,0.7322654462242564,0.78732336510023
feature,0.7475728155339806,0.6936936936936937,0.719626168224299,0.7732392101720595
feature,0.7328881469115192,0.6733128834355828,0.7018385291766587,0.7757682284597427
feature,0.7411764705882353,0.6732824427480916,0.7056,0.7778992692401727
feature,0.7594108019639935,0.7040971168437026,0.7307086614173229,0.8017605691255895
feature,0.7520259319286872,0.6935724962630793,0.7216174183514774,0.7837768540036878
