Id,month_of_year,day_of_month,day_of_week,hour_of_day,minute_of_hour,deletion,addition,isBug,isFeature,isResource,isTest,isRefactoring,isMerge,isDeprecated,isOthers,isMultiple,total,source,test,resource,script,config,makefile,other,changed_file_30,changed_file_90,total_changed_30,total_changed_90,word2vec_f1,word2vec_f2,word2vec_f3,word2vec_f4,word2vec_f5,word2vec_f6,word2vec_f7,word2vec_f8,word2vec_f9,word2vec_f10,word2vec_f11,word2vec_f12,word2vec_f13,word2vec_f14,word2vec_f15,word2vec_f16,word2vec_f17,word2vec_f18,word2vec_f19,word2vec_f20,word2vec_f21,word2vec_f22,word2vec_f23,word2vec_f24,word2vec_f25,word2vec_f26,word2vec_f27,word2vec_f28,word2vec_f29,word2vec_f30,word2vec_f31,word2vec_f32,word2vec_f33,word2vec_f34,word2vec_f35,word2vec_f36,word2vec_f37,word2vec_f38,word2vec_f39,word2vec_f40,word2vec_f41,word2vec_f42,word2vec_f43,word2vec_f44,word2vec_f45,word2vec_f46,word2vec_f47,word2vec_f48,word2vec_f49,word2vec_f50,word2vec_f51,word2vec_f52,word2vec_f53,word2vec_f54,word2vec_f55,word2vec_f56,word2vec_f57,word2vec_f58,word2vec_f59,word2vec_f60,word2vec_f61,word2vec_f62,word2vec_f63,word2vec_f64,word2vec_f65,word2vec_f66,word2vec_f67,word2vec_f68,word2vec_f69,word2vec_f70,word2vec_f71,word2vec_f72,word2vec_f73,word2vec_f74,word2vec_f75,word2vec_f76,word2vec_f77,word2vec_f78,word2vec_f79,word2vec_f80,word2vec_f81,word2vec_f82,word2vec_f83,word2vec_f84,word2vec_f85,word2vec_f86,word2vec_f87,word2vec_f88,word2vec_f89,word2vec_f90,word2vec_f91,word2vec_f92,word2vec_f93,word2vec_f94,word2vec_f95,word2vec_f96,word2vec_f97,word2vec_f98,word2vec_f99,word2vec_f100,userid,total_changes,redo_changes,undorate,label
7922,4,30,4,17,45,11,15,0,0,0,0,0,1,0,0,0,1,1,0,0,1,0,0,0,1,1,1,2,-0.10314983,0.13506586,0.26749653,0.66439149,0.19577828,-0.53962324,0.55126997,0.10894432,-0.28843459,0.18132902,0.13110575,-0.00569768,0.37090589,-0.66511459,0.31247207,0.18094816,-0.24779587,0.30156941,-0.34693637,-0.21361902,-0.10391481,-0.487296,0.01176128,0.42975019,0.32681836,0.50480712,-0.03614104,0.00527393,-0.23161877,0.48744947,-0.09491702,0.07552204,-0.00393489,-0.33625379,-0.27370739,0.39441478,-0.04022666,-0.22075148,0.0160698,-0.26356985,-0.08541221,0.1985183,0.5374274,-0.15117035,-0.04458252,0.40959596,-0.0044087,-0.01095964,0.08554703,-0.32948335,0.09915789,0.45070027,-0.29819073,0.14162592,-0.14800386,-0.06267285,-0.36241247,-0.44480755,0.19529081,0.25367019,0.52978373,0.00312961,0.21892006,-0.20565959,-0.18978922,0.05522011,-0.43249119,-0.15606217,-0.05975816,0.30043471,0.00694123,-0.09400335,-0.42327966,0.41992642,0.05219888,-0.14958851,-0.02918688,-0.51652078,-0.05006866,-0.52322029,0.3605594,-0.02177451,-0.43723116,0.32633734,-0.10259358,-0.18413133,-0.26066459,0.57317009,-0.61722349,0.54229576,0.08949766,-0.52910857,0.13241545,-0.07824307,0.35851523,0.18761841,-0.26519754,-0.19738981,-0.27141781,-0.38233634,1,365,52,0.142465753,1
7728,4,23,4,22,12,0,109,0,0,1,0,0,1,0,0,1,1,0,0,0,0,0,0,1,1,1,5,6,0.105118457,-0.061481168,0.085491902,0.439846398,0.031022663,-0.352968514,0.35990706,-0.104079112,-0.176737218,0.236738374,0.114738329,-0.018359366,0.485053277,-0.678811816,0.450240837,0.350797181,-0.206906637,0.282946166,-0.387309892,-0.205695259,-0.027330273,-0.459849028,-0.076516485,0.310954132,0.052217858,0.728376828,0.069789694,0.035283188,-0.168939266,0.403242808,-0.286344411,-0.145309733,-0.051158149,-0.225392888,0.019721256,0.207247302,0.110273491,-0.301093131,-0.000456315,-0.135138333,0.01765889,0.254968734,0.457984957,-0.180715411,0.20018824,0.378943964,-0.159801724,0.125691241,0.047955178,-0.473203391,0.25812771,0.143085986,-0.177743648,0.25598917,-0.109077495,0.080782769,-0.37836293,-0.493760482,0.365830587,0.079017875,0.470119559,0.097629918,0.19811666,-0.276734587,-0.179746504,-0.072545526,-0.294781687,-0.065650347,-0.03653085,0.325743687,-0.303105986,-0.201137711,-0.03603062,0.685541304,0.231632934,-0.150480628,-0.306599506,-0.494821974,0.243065934,-0.263594729,0.356701353,-0.010351178,-0.594612853,0.437970202,-0.192381603,-0.094489501,0.067223529,0.611312504,-0.627478492,0.29725347,0.077958716,-0.475377126,0.154587385,-0.093333188,0.407041486,0.220886335,-0.19957845,-0.105959714,-0.24633919,-0.170963248,4146,7,2,0.285714286,0
7463,4,15,3,21,23,0,2658,0,0,0,0,0,1,0,0,0,13,3,0,0,0,0,0,10,8,9,44,99,0.1470801,-0.04874769,0.23237417,0.72181302,-0.09915872,-0.31200854,0.44712122,0.10762336,-0.27166877,0.37182942,0.23881689,-0.08617251,0.4756506,-0.97693784,0.29624466,0.39166617,-0.42447887,0.20090312,-0.54995016,0.02999281,-0.00860306,-0.37956557,-0.20893922,0.37008283,0.0577577,0.32152658,0.38546071,-0.73609468,-0.50914481,0.61771193,-0.29909225,-0.07858578,0.06838289,-0.4663133,0.0353104,0.46908125,-0.19469047,-0.43149569,0.0473486,-0.26481123,-0.0208257,0.05124021,0.70890503,-0.03353858,0.04410534,0.43164475,-0.11260754,0.05504383,0.08077099,-0.65393481,0.03538613,0.15782907,-0.03183832,0.53932879,0.12412013,0.08154848,-0.88709538,-0.52249236,0.66263206,0.28750452,0.49769977,-0.07164892,0.15943762,-0.33029034,-0.59128238,-0.27892302,-0.54407062,-0.51551911,-0.11017014,0.43777437,-0.2690793,-0.10545989,-0.2091314,0.88607903,0.155809,-0.23339657,-0.44123729,-0.72240344,0.23275115,-0.37499484,0.49668652,-0.05042203,-0.75384761,0.530716,-0.44302441,0.20561873,-0.01601201,0.86982654,-0.87961266,0.14060201,0.27644375,-0.68079634,0.32801278,-0.10686844,0.74877464,0.49989646,-0.53956259,-0.49374488,-0.6259711,-0.42241981,2,373,104,0.278820375,0
6958,4,1,3,10,27,0,11,0,0,1,0,0,1,0,0,1,1,0,0,0,0,1,0,0,1,1,8,15,-0.1134008,0.07981668,0.06583237,0.69808398,-0.10495973,-0.51135475,0.48527328,-0.05238187,-0.10889401,0.20813498,-0.03076772,-0.03284365,0.39733583,-0.80241655,0.31983101,0.30174147,-0.30084044,0.23777068,-0.44556211,-0.29569566,-0.23864977,-0.45728914,0.09606932,0.24896261,0.16502093,0.65986864,-0.03687894,-0.21118229,-0.22806217,0.55907171,-0.1008421,0.08702662,-0.0493025,-0.28013921,-0.12528217,0.40678048,-0.00568038,-0.2678483,-0.0191833,-0.15301069,-0.17390194,0.22358017,0.53420619,-0.04664591,0.11222388,0.43441676,-0.09397078,-0.02430011,0.04783602,-0.47746416,0.16134581,0.39447397,-0.26800003,0.10743963,-0.16021586,-0.14186309,-0.24022275,-0.49886868,0.38214051,0.15383192,0.43971097,0.09870844,0.22914476,-0.28062905,-0.23553167,-0.06461914,-0.43960348,-0.1684642,0.170642,0.43577163,-0.16646791,0.06161877,-0.35366962,0.45575157,0.02986814,-0.08851618,-0.19283786,-0.66093925,0.15810904,-0.37077777,0.65986405,-0.1103215,-0.40245641,0.54519157,-0.1793767,-0.08483211,-0.13631726,0.66873804,-0.6298814,0.45235061,-0.06035174,-0.42407738,0.13326011,-0.2051378,0.390984,0.11950013,-0.3633711,-0.11947505,-0.20314673,-0.05378731,2325,102,24,0.235294118,0
6509,3,13,6,0,22,238,90,0,0,0,0,0,1,0,0,0,16,7,7,0,1,0,0,2,13,16,60,212,0.12004433,0.18558804,0.37096465,0.50204644,0.25518859,-0.4285273,0.63742848,0.1080067,-0.15890165,0.28668217,0.31279284,-0.05814624,0.20144532,-0.78984235,0.379061,0.26531909,-0.30097853,0.33858147,-0.61912169,-0.00850709,-0.09805462,-0.49666496,-0.00587392,0.38223898,0.39488883,0.6449263,-0.01145902,-0.25379034,-0.47772855,0.6229322,-0.16278856,-0.18695312,-0.0750788,-0.37296413,-0.19409069,0.31686058,-0.03967998,-0.07196776,0.1038378,-0.39536077,0.17276334,-0.02240694,0.55192236,-0.23716845,-0.12842059,0.23526916,0.01390821,0.10238913,0.20474001,-0.45297343,0.07659281,0.17956981,-0.14786205,0.61539374,0.05953497,-0.08102919,-0.58582481,-0.41550483,0.45235455,0.15026739,0.39763658,-0.13130668,0.16256824,-0.2678268,-0.24194633,0.00199936,-0.59985275,-0.33686383,-0.18289783,0.30622682,0.126552,-0.31713545,-0.16452135,0.68379843,0.05683594,-0.41789811,-0.2293117,-0.57312332,0.28236892,-0.40656687,0.4019388,0.06673551,-0.61806125,0.28612815,-0.3981039,0.03952955,-0.11040452,0.5837342,-0.75394437,0.19962212,0.28248369,-0.68690992,0.33021909,-0.17901509,0.42810737,0.46151558,-0.47615585,-0.31176342,-0.32512271,-0.60690297,1816,222,78,0.351351351,1
6793,3,25,4,3,40,145,95,0,1,0,0,0,1,0,0,1,13,5,6,0,0,0,0,2,6,12,18,51,0.18884484,0.11917606,0.02835368,-0.11962709,0.38633894,-0.33264967,0.5940598,0.18978743,-0.26549979,0.10218076,-0.07397883,0.23442765,0.3455637,-0.38981789,0.41423992,0.2987637,-0.36626714,0.21158334,-0.37884264,0.1046597,-0.22920094,-0.5664683,-0.07620168,0.36479997,0.22779104,0.93461851,-0.32728789,0.62004559,-0.16938858,0.34141102,-0.2991559,-0.37273212,-0.11766844,-0.20541958,-0.2514559,-0.34966975,0.04177742,0.0857927,-0.13029184,-0.11247772,0.29927279,0.25400535,0.148429,-0.4200319,0.0298322,0.18589857,-0.55200742,0.2942623,0.05817147,-0.68922559,0.27418032,0.01599427,-0.32445899,0.47393111,-0.0022439,0.15096755,-0.22795141,-0.41001839,0.3484938,-0.07869915,0.35796003,0.26129173,-0.00610083,-0.33525351,-0.02521704,-0.04299677,-0.38514642,-0.11431749,-0.38584485,0.27268019,0.02700721,-0.26076331,0.35200411,0.83648052,0.35359096,-0.10285533,-0.34150723,-0.33384969,0.34678369,-0.44237463,0.08259027,0.04663053,-0.53557377,0.16400577,-0.41504819,0.05257532,0.20055104,0.4840122,-0.48555075,0.09028203,0.22733419,-0.52699652,0.08913758,-0.21329816,0.19628502,0.28305756,-0.10603626,0.10465155,-0.2733967,-0.42809449,1132,310,177,0.570967742,1
6759,3,24,3,16,39,6,7,0,0,1,0,0,1,0,0,1,1,0,0,1,0,0,0,0,1,1,4,10,-0.0813331,0.11823713,-0.07197891,0.32841153,0.13327843,-0.30701664,0.37424351,0.1618623,-0.30439055,0.20416668,-0.08408537,0.1094686,0.2053202,-0.52167008,0.05892998,0.20278726,-0.38149639,-0.05624497,-0.36616972,-0.11098487,-0.154031,-0.22155881,-0.05089784,0.10240372,0.10498943,0.34878828,-0.01128836,-0.05164441,-0.26451137,0.330119,-0.13266917,0.03424475,-0.13741588,-0.3196223,-0.17742159,0.22203506,-0.04552214,-0.05231081,-0.17112854,-0.33391677,-0.05379985,0.3221309,0.36706666,-0.21042055,-0.10518522,0.29160527,-0.17866205,0.01757347,0.05670086,-0.52401064,0.0837008,0.28444924,-0.28719873,0.03632128,0.00875008,0.08973451,-0.35528588,-0.41942539,0.40217776,0.02016449,0.33166612,0.25958888,0.04319356,-0.31672466,-0.44594529,-0.11208653,-0.42152676,-0.28687474,-0.14041084,0.31900058,0.00161919,0.07233605,-0.22825938,0.6177365,0.18299652,0.13395615,-0.21452473,-0.40432764,-0.0043973,-0.45863147,0.31947242,0.06509896,-0.3695059,0.3822009,-0.21636173,-0.02708514,-0.15047376,0.42242889,-0.63220154,0.23587355,0.22864245,-0.3975579,-0.03944974,0.12974612,0.13148814,0.26359208,-0.26569134,-0.06319221,-0.21718854,-0.38009293,447,66,19,0.287878788,0
5481,2,17,7,5,12,453,3251,0,0,0,1,0,1,1,0,1,25,23,1,0,3,0,0,1,5,5,19,53,-0.16214657,0.193253793,-0.167452778,0.256369032,0.299421467,-0.569011138,0.622006025,0.009846823,-0.005390935,0.035072631,-0.091113877,0.197776963,0.349129826,-0.312633634,0.557955873,0.267644678,-0.223450071,0.297695691,-0.335820459,-0.152118121,-0.057619428,-0.569138312,-0.105150526,0.29017395,0.25628851,0.7681143,-0.390008461,0.607450929,-0.088884896,0.223874687,-0.08648309,-0.149704189,-0.321469418,-0.388302366,-0.253427467,-0.227172829,0.036898629,0.005133865,-0.020572101,-0.059186243,0.000731825,0.374090659,0.135648132,-0.212923742,-0.201166429,0.179584476,-0.274471758,0.126140148,0.063123343,-0.51839314,0.265291877,0.353050043,-0.378890073,0.047117624,-0.159069162,-0.110096949,-0.042371724,-0.261028718,0.101983008,0.002489913,0.365711326,0.150174474,0.143998041,-0.254448683,0.110620901,0.00681611,-0.283693478,-0.020304678,-0.040926813,0.266224717,0.048509702,-0.095659869,-0.034613727,0.431228512,0.084253868,-0.120645813,-0.221653506,-0.369195787,0.116685744,-0.343869023,0.280854123,0.071799528,-0.441457376,0.239813904,-0.099120512,-0.176440675,-0.024269046,0.262666912,-0.399343135,0.349164329,0.020005064,-0.299352069,-0.022306781,-0.249498383,0.041520149,0.112921226,-0.095573925,0.253653463,-0.082330325,-0.251117239,1,365,52,0.142465753,1
5420,2,15,5,22,9,425,448,0,0,1,0,0,1,0,0,1,2,0,0,2,0,0,0,0,2,2,18,30,-0.10665094,0.09265716,-0.04277039,0.34868353,0.15288597,-0.4051036,0.49471977,0.01919261,-0.17534194,0.09709947,-0.09855075,0.06038325,0.30514395,-0.41642706,0.34936547,0.35243679,-0.2518193,0.16150713,-0.254089,-0.20111498,-0.12039798,-0.47645546,-0.04283093,0.2710119,0.14602413,0.62175347,-0.27628659,0.36471099,-0.11040782,0.24774713,-0.15982823,-0.06987379,-0.03582457,-0.27329098,-0.13887939,-0.14549994,-0.00719563,-0.08538276,-0.02862362,-0.13971583,-0.05085844,0.3530668,0.1762889,-0.25674758,0.04376865,0.24424598,-0.31053439,0.0831099,0.04265726,-0.51394465,0.19524743,0.33376253,-0.33789461,0.04419248,-0.04670482,0.04310465,-0.23523216,-0.46455683,0.26763487,-0.00964379,0.4261293,0.31127101,0.18417429,-0.35295466,-0.17172476,0.00538504,-0.32120993,-0.12368375,-0.0484431,0.18962194,-0.0525633,-0.10545134,-0.11907145,0.54783356,0.1383785,0.13151543,-0.28490583,-0.40170594,0.14177101,-0.49404668,0.35047113,-0.03925266,-0.4282286,0.32952014,-0.1710728,-0.15789547,-0.03353403,0.49594517,-0.53866202,0.34072132,0.10829651,-0.30687597,-0.03761702,-0.10329148,0.07907275,0.05444738,-0.22090915,0.16506691,-0.18266052,-0.13108341,964,173,37,0.213872832,1
4876,2,3,7,19,3,253,212,0,0,1,0,1,1,0,0,1,28,13,13,0,0,0,0,2,28,28,95,219,0.01853666,0.19496131,-0.14292517,0.2693911,0.1128311,-0.39199209,0.47332471,0.1812599,-0.28304371,-0.05549573,-0.28597426,0.17100401,0.39799806,-0.4660941,0.25624573,0.21102146,-0.36477284,0.12199018,-0.29869798,0.05887417,-0.26583019,-0.41754344,-0.21640959,0.31786565,0.23555789,0.51163968,-0.09381925,0.22640696,-0.2567963,0.28256834,-0.17438184,0.06931523,-0.13374088,-0.41025501,-0.07821665,-0.15396487,-0.18269795,-0.17356466,0.11376483,-0.05219192,-0.01608534,0.32962438,0.10055093,-0.13147534,0.04878903,0.13144976,-0.33129703,-0.06904823,-0.02832085,-0.53094966,0.04534434,0.29424614,-0.51507963,-0.01301507,-0.0438337,-0.03082424,-0.25320161,-0.37943588,0.25886397,0.12920041,0.44062163,0.19111841,0.17905465,-0.22541793,-0.26878167,-0.06248037,-0.40351959,-0.311196,-0.14111846,0.26500628,-0.11063191,0.07124331,0.00686853,0.49499531,0.14336785,-0.07776707,-0.12598725,-0.57345658,-0.13513431,-0.5131386,0.34226655,0.1964811,-0.38779887,0.24875601,-0.15072547,-0.10031722,-0.03425681,0.48972219,-0.55336103,0.33828848,0.06902806,-0.29350873,0.0774693,-0.18529127,0.17376365,0.09750434,-0.08989419,0.04378182,-0.33442294,-0.31077945,97,31,16,0.516129032,1
4362,1,21,3,20,32,3,1718,1,1,0,1,1,1,0,0,1,21,9,6,0,0,0,0,6,11,11,131,189,-0.00690751,0.19209443,-0.22408573,0.18948552,0.09134579,-0.38480781,0.37239107,0.04592852,-0.13296912,0.10560341,-0.16456599,0.2688007,0.33280412,-0.50497955,0.32731849,0.27416831,-0.29782836,0.14193717,-0.49692592,0.00890182,-0.24274807,-0.30928865,-0.03786525,0.08998097,0.07260164,0.7091705,-0.15386531,0.21439017,-0.13367064,0.34751883,-0.1303409,-0.10464889,-0.37270235,-0.28427655,-0.27701317,0.08059113,0.12954652,0.01137017,-0.11740275,-0.28548347,0.00940665,0.3928485,0.28925281,-0.24706401,-0.02993859,0.23172695,-0.30237127,0.22598427,0.04806616,-0.55708288,0.25369219,0.05956596,-0.3201115,0.04545323,-0.08940948,-0.08324593,-0.10445767,-0.51569845,0.36381279,-0.16450774,0.43261937,0.17217057,0.00195527,-0.19762843,-0.20273248,-0.06704563,-0.33497775,-0.10731562,-0.0458154,0.40062405,-0.17795498,-0.0212483,0.04794007,0.66058326,0.15822661,-0.08400337,-0.39276771,-0.37507278,0.14735954,-0.27105548,0.35172683,0.26675394,-0.52230481,0.34724893,-0.22503761,-0.08922806,0.06337721,0.40089998,-0.67121527,0.22665642,0.12606808,-0.39990385,0.02239255,-0.04669669,0.10762992,0.28968278,-0.11179995,0.0919165,-0.14878303,-0.22859613,2218,5,5,1,1
4172,1,15,4,0,4,111,6,0,0,0,0,0,1,0,0,0,2,1,0,0,1,0,0,1,2,2,43,85,0.023805,0.04902649,-0.0337178,0.3288034,-0.06304198,-0.25645182,0.31445044,0.1534812,-0.2301666,0.23533336,-0.10992277,0.00886257,0.34968892,-0.71308846,0.02899526,0.30881088,-0.45259434,0.03684587,-0.35421631,0.04433803,-0.24630596,-0.16784975,-0.08609277,0.11232716,0.09561794,0.26344016,0.08806019,-0.23250034,-0.27208566,0.52898427,-0.13941036,0.05162806,-0.1627576,-0.23114968,-0.14228559,0.40283226,-0.14302119,-0.22741414,0.01443307,-0.33666267,-0.05544776,0.18247213,0.36554084,-0.10850216,0.05522407,0.23661901,-0.02482323,0.00842682,0.01605266,-0.3416086,-0.03945229,0.13243459,-0.25537184,0.10773068,0.08765068,-0.01161217,-0.32086422,-0.49522705,0.48460337,0.02975701,0.43120721,0.07736883,0.07713497,-0.335488,-0.50855194,-0.11885043,-0.49947967,-0.35341675,-0.09181503,0.3970423,-0.14277423,0.10460506,-0.21228427,0.5712256,0.16478311,-0.01316633,-0.21009516,-0.50910273,-0.00678633,-0.39618476,0.51831985,0.21529662,-0.39467421,0.28462469,-0.28126379,0.03140312,-0.0653204,0.62251491,-0.74120356,0.18981476,0.20715657,-0.44853789,0.06930858,0.07912062,0.30436123,0.18982895,-0.24087563,-0.1950308,-0.24290301,-0.18987998,1,365,52,0.142465753,0
4170,1,15,4,0,0,99538,0,0,0,0,0,0,1,0,0,0,583,202,60,163,3,0,1,157,583,583,1200,2356,0.023805,0.04902649,-0.0337178,0.3288034,-0.06304198,-0.25645182,0.31445044,0.1534812,-0.2301666,0.23533336,-0.10992277,0.00886257,0.34968892,-0.71308846,0.02899526,0.30881088,-0.45259434,0.03684587,-0.35421631,0.04433803,-0.24630596,-0.16784975,-0.08609277,0.11232716,0.09561794,0.26344016,0.08806019,-0.23250034,-0.27208566,0.52898427,-0.13941036,0.05162806,-0.1627576,-0.23114968,-0.14228559,0.40283226,-0.14302119,-0.22741414,0.01443307,-0.33666267,-0.05544776,0.18247213,0.36554084,-0.10850216,0.05522407,0.23661901,-0.02482323,0.00842682,0.01605266,-0.3416086,-0.03945229,0.13243459,-0.25537184,0.10773068,0.08765068,-0.01161217,-0.32086422,-0.49522705,0.48460337,0.02975701,0.43120721,0.07736883,0.07713497,-0.335488,-0.50855194,-0.11885043,-0.49947967,-0.35341675,-0.09181503,0.3970423,-0.14277423,0.10460506,-0.21228427,0.5712256,0.16478311,-0.01316633,-0.21009516,-0.50910273,-0.00678633,-0.39618476,0.51831985,0.21529662,-0.39467421,0.28462469,-0.28126379,0.03140312,-0.0653204,0.62251491,-0.74120356,0.18981476,0.20715657,-0.44853789,0.06930858,0.07912062,0.30436123,0.18982895,-0.24087563,-0.1950308,-0.24290301,-0.18987998,1,365,52,0.142465753,0
3325,0,23,2,22,47,0,2,0,0,0,0,0,1,0,0,0,2,1,0,0,1,0,0,1,2,2,28,74,0.05059767,0.21523767,0.3085834,0.42257888,0.31472719,-0.45337577,0.70440875,0.20343902,-0.13446347,0.15724234,0.1962471,-0.01730085,0.22578914,-0.80308519,0.41639075,0.37894985,-0.53171871,0.21755171,-0.50218184,0.0583827,0.03803673,-0.5426604,-0.15403038,0.4243782,0.38106923,0.75261987,-0.21040587,0.11343818,-0.44495521,0.44204986,-0.17851313,-0.10343433,-0.03941248,-0.51826904,-0.16786821,-0.04446934,-0.12764822,-0.00887117,0.13453399,-0.20669882,0.05393628,0.03772746,0.27342908,-0.33251885,-0.12208313,0.33879817,-0.29696076,0.11940517,0.23144425,-0.59688599,0.1194426,0.24670112,-0.32783071,0.57788195,0.09813605,-0.01136451,-0.51658151,-0.51864183,0.41438466,0.10554479,0.34202102,0.00473072,0.06415387,-0.40883809,-0.17714078,-0.07696265,-0.50834076,-0.18281483,-0.35955336,0.10409057,0.10939351,-0.29812564,0.032118,0.66523347,0.13016076,-0.11797133,-0.33513798,-0.58300535,0.06570425,-0.43438616,0.26599101,0.05027221,-0.68470341,0.12749471,-0.46529549,-0.02722237,-0.07431099,0.50140498,-0.78602697,0.30427618,0.12460937,-0.55577998,0.14304506,-0.14978304,0.33538674,0.44428463,-0.46050295,-0.28427398,-0.38812509,-0.4683831,100,165,44,0.266666667,1
2460,11,19,2,14,59,58,542,0,0,1,0,0,1,0,0,1,14,10,4,0,0,0,0,0,11,11,219,500,-0.1206848,0.23779532,-0.03448566,0.08708902,0.44347595,-0.25249261,0.67952928,0.03673396,-0.02951364,0.10436742,0.11090133,0.22014816,0.05840806,-0.24535404,0.39120826,0.35744381,-0.36771517,-0.03071482,-0.51983721,-0.23608832,0.05093072,-0.51456506,-0.1088792,0.22223096,0.22247321,0.76521032,-0.41916192,0.52825759,-0.45444083,0.07688014,-0.27384735,-0.23268497,-0.08584133,-0.39171947,-0.114999,-0.45596404,-0.01242185,0.23664177,0.09187827,-0.05816978,-0.00323704,0.40543821,-0.08860384,-0.33815779,-0.12118254,0.19838427,-0.57542007,0.23189073,0.05041982,-0.90530015,0.34219718,0.36182664,-0.15097859,0.36557841,-0.09014696,0.26642189,-0.40517226,-0.27539227,0.23736693,-0.20680928,0.21493331,0.28790424,0.06349517,-0.46061428,-0.05143274,-0.02861403,-0.35422183,-0.07208338,-0.1757959,0.15144452,0.17485552,-0.1880146,0.20575848,0.57127748,0.20463316,0.06524622,-0.43698509,-0.40187373,0.16834615,-0.44308747,0.10226791,-0.11706191,-0.71671901,0.3115618,-0.45354832,0.04181447,0.06289064,0.16212404,-0.4901728,0.16831332,0.10208476,-0.15750777,-0.19099045,-0.08130041,-0.1090264,0.47997207,-0.18895046,0.11818124,-0.14165568,-0.48961012,688,8,7,0.875,1
2462,11,19,2,15,40,178,3,1,0,1,0,0,1,0,0,1,2,0,0,0,0,0,0,2,1,1,1,3,0.10391822,-0.01479364,0.0875208,0.427975,0.20543853,-0.42922014,0.45751002,0.05542742,-0.11286049,0.42494757,0.33733358,-0.00547785,0.18547725,-0.73029804,0.37407842,0.22472171,-0.33492453,0.23493189,-0.47395279,-0.13512516,-0.09675299,-0.48177475,-0.10194986,0.23468765,0.17443953,0.76571926,0.09780989,-0.14533852,-0.4199814,0.45895608,-0.21571831,-0.24802675,-0.18277316,-0.52909431,-0.0608491,0.20984544,-0.01655631,-0.17788606,-0.07346599,-0.16733799,0.10793832,0.14603637,0.61677393,-0.24933882,-0.07578572,0.249437,-0.32687766,0.00459247,0.24780967,-0.87539902,0.18534637,0.32659759,-0.22308047,0.45207197,0.0930306,0.09711867,-0.58720032,-0.63076298,0.64253887,0.19681717,0.44420236,0.13475696,0.1801443,-0.34398865,-0.34184342,-0.25858007,-0.42815455,-0.28369838,-0.15001994,0.39972509,-0.03454952,-0.23322389,-0.1088333,0.79376256,0.19744331,-0.20130506,-0.37075779,-0.57785919,0.25714038,-0.282885,0.41488318,0.02169637,-0.73070064,0.38163369,-0.34837844,0.04561177,0.10082909,0.65997958,-0.76826687,0.13237604,0.1055122,-0.57447001,0.13874433,-0.04985767,0.51709548,0.28737524,-0.4531214,-0.24557531,-0.30807168,-0.36596522,308,90,12,0.133333333,0
2308,11,13,3,23,39,347,105,0,0,0,0,1,1,0,0,1,9,5,4,0,0,0,0,0,8,9,122,283,-0.34391661,0.50743214,-0.17209796,0.25459651,0.61885357,-0.48089369,0.61604749,-0.02446437,-0.08334523,0.12275989,0.03357281,0.28152176,-0.02601349,-0.31020825,0.23522968,0.18308963,-0.3243734,-0.10090709,-0.6579811,-0.35641162,-0.01837629,-0.53291261,0.06983873,0.18710895,0.29968793,0.84371529,-0.48802024,0.60920676,-0.46040008,0.05049162,-0.10904748,-0.10299347,-0.14853067,-0.53198507,-0.18444679,-0.38585992,0.27158969,0.3142913,-0.0452473,-0.06626507,-0.05711377,0.47229839,0.01417865,-0.37793124,-0.16880829,0.21787391,-0.68632722,0.07617233,0.27524772,-0.92390762,0.4413568,0.60517236,-0.26970535,0.18816313,-0.07384555,0.21260796,-0.24520085,-0.54356859,0.18741069,-0.15438638,0.29166686,0.37824309,0.09499121,-0.41132767,0.02991421,-0.04736414,-0.37715281,0.00904188,-0.11274862,0.12887654,0.37554885,-0.27069979,-0.03172013,0.41831517,0.16492095,0.15853503,-0.43237062,-0.40657231,0.00231174,-0.33296351,0.13271942,-0.03904686,-0.63386139,0.31648948,-0.22208171,-0.1130612,-0.07741745,0.13740139,-0.5155728,0.34444026,-0.11813722,-0.19855564,-0.35767962,0.01751306,-0.13934081,0.29163348,-0.22867192,0.13618522,0.02257194,-0.32748195,100,165,44,0.266666667,0
2340,11,14,4,21,51,1,24,0,0,0,0,0,1,0,0,0,2,2,0,0,1,0,0,0,2,2,8,8,-0.23159326,0.25066929,-0.15028967,0.2600325,0.36814866,-0.54848768,0.68939939,-0.01705142,-0.07518592,0.13512056,-0.04930972,0.10914372,0.23223304,-0.28066135,0.44358494,0.25534545,-0.22123211,0.19744161,-0.43038734,-0.30480827,-0.16848209,-0.56359653,0.0889858,0.28481673,0.31046386,0.74586174,-0.35960067,0.53133771,-0.26454751,0.30338962,-0.11671183,-0.17463485,-0.23798244,-0.26828244,-0.25349567,-0.20473979,0.09967893,0.12962039,-0.07904387,-0.16004925,0.03184883,0.37219895,0.14787056,-0.21121392,-0.174129,0.13100955,-0.25779114,0.11136004,0.09266236,-0.56176737,0.30333762,0.47336368,-0.25531269,0.16818948,-0.1260477,0.03184271,-0.09746226,-0.31686884,0.19502394,-0.12503596,0.27959146,0.25020551,0.17739229,-0.32858172,0.00706485,0.01717818,-0.39626478,-0.08101225,-0.03468325,0.24778301,0.20055134,-0.1159353,-0.18912441,0.47990477,0.13571574,-0.06590485,-0.19396531,-0.33285551,0.09880885,-0.49372521,0.36593427,0.03493851,-0.41305243,0.30603671,-0.18081614,-0.14495947,-0.03729521,0.29372922,-0.43330347,0.28454712,0.06535127,-0.35884151,-0.10504142,-0.23693705,-0.04355781,0.18999521,-0.21082449,0.20257665,-0.02065259,-0.33685185,1,365,52,0.142465753,0
2274,11,13,3,2,0,220,383,0,0,0,0,0,1,0,0,0,36,16,3,17,0,0,0,0,7,7,16,19,-0.24117014,0.2696165,-0.52103544,0.27294554,0.07386836,-0.55984383,0.5661048,0.16942544,-0.15161833,0.17844627,-0.41120465,0.24034905,0.30779479,-0.36743081,0.21487152,0.27822998,-0.43439231,-0.08881672,-0.50738317,-0.05337281,-0.26068764,-0.35261418,-0.13540182,0.0503589,0.12139773,0.32492883,-0.12393905,0.0608915,-0.34785346,0.29213318,-0.09946068,-0.0860246,-0.35148349,-0.55583401,-0.12618204,-0.1618214,-0.12618336,0.03604245,-0.23492127,-0.20642305,-0.03810529,0.38881958,0.16301836,-0.01215188,-0.33730596,0.18572552,-0.39528042,-0.05362659,0.14342005,-0.75633177,0.13636054,0.31501158,-0.28180155,0.04927494,0.14543292,0.05406854,-0.29775793,-0.30614662,0.55282973,-0.08119378,0.22893063,0.39199294,0.05603114,-0.4822376,-0.40127651,-0.35290548,-0.55291504,-0.59815374,-0.09312806,0.41089524,0.25510495,0.22733361,-0.19479109,0.72524825,0.1685443,0.07916347,-0.34489553,-0.58103939,-0.01169938,-0.42975203,0.5304165,0.10513737,-0.26230813,0.31346225,-0.30095245,0.05770962,-0.03763185,0.43902066,-0.49566026,0.07291633,0.20189659,-0.3332763,-0.18744507,-0.21770517,0.17789923,0.09203639,-0.33837508,0.12624994,-0.18006153,-0.35152574,1205,83,49,0.590361446,1
2260,11,12,2,18,56,245,440,0,0,0,0,0,1,0,0,0,50,19,4,27,0,0,0,0,4,6,10,14,-0.17654213,0.3080759,-0.51822403,0.30631869,0.12326303,-0.42935525,0.34054044,0.13884922,-0.11234842,0.15183511,-0.21441643,0.23775729,-0.16058519,-0.09296842,-0.00857175,0.37077577,-0.41125756,-0.21338115,-0.48332332,-0.29662218,-0.08653323,-0.3045071,-0.10847322,-0.08666573,-0.19111651,0.32649024,0.00771865,0.01959003,-0.4511713,-0.07013057,-0.13663146,-0.02584038,-0.24747604,-0.6743147,-0.05309497,-0.19491544,-0.1407701,0.05783849,-0.105986,-0.1621191,-0.27194893,0.75648579,0.27229532,-0.18334589,-0.27684182,0.14006718,-0.4485305,0.04306598,0.03890575,-1.2259022,0.23975151,0.41847799,-0.28831131,-0.31946921,0.0163228,0.26818014,-0.68851455,-0.38421773,0.55773273,-0.09516867,0.31482515,0.66011558,0.00675511,-0.35595504,-0.52495087,-0.31807606,-0.58549735,-0.52310463,0.04903502,0.62322596,0.07564227,0.29032249,-0.1342757,0.53215458,0.09917585,0.29249476,-0.4621164,-0.71609944,0.0106065,-0.65405895,0.42383166,0.01197754,-0.67937957,0.70380078,-0.40328442,-0.07349572,-0.07577037,0.17904106,-0.62062099,0.03214441,0.40057371,0.03270205,-0.31037383,0.11568062,-0.24678733,0.41899441,-0.23775995,0.16833813,-0.31806269,-0.66524004,1205,83,49,0.590361446,1
2152,11,7,4,19,22,212,410,0,0,0,0,0,1,0,0,0,50,20,5,24,0,0,0,1,9,13,30,42,-0.27764722,0.40996601,-0.41549542,0.34955191,0.12778054,-0.3647753,0.5759691,0.11779101,0.00868629,0.11069488,-0.20391356,0.26183862,0.09152762,-0.31016554,0.0829782,0.36879922,-0.56968758,-0.35365466,-0.5946852,-0.14897817,0.00784567,-0.33202488,-0.20219192,-0.02963786,0.06334964,0.32002016,-0.24923361,0.06599606,-0.46564434,0.04257044,-0.15015806,-0.03307166,-0.1715567,-0.71612023,-0.01813109,-0.31074017,-0.10364945,0.03905486,-0.06732334,-0.04814413,-0.26685377,0.4278885,0.02308719,-0.03346571,-0.26777815,0.39262207,-0.74285139,0.06078597,0.12364265,-1.11568589,0.26487464,0.36082575,-0.08650792,0.14055117,0.14138358,0.31565678,-0.49408989,-0.40004211,0.5685568,-0.11721243,0.22562855,0.48945257,-0.04100269,-0.63448109,-0.38421238,-0.50148755,-0.51656022,-0.47683312,-0.11188924,0.38850545,0.18753783,0.21469037,0.0191271,0.64594192,0.11367181,0.29291501,-0.59951424,-0.68215933,-0.03901448,-0.31362332,0.27442172,-0.17284553,-0.57475509,0.41541371,-0.46114334,0.24199959,-0.05696335,0.30870715,-0.59061698,0.11571926,0.01132566,-0.12436671,-0.35075194,-0.01183722,0.06955416,0.31084297,-0.39982719,-0.00417687,-0.25409451,-0.25436394,1205,83,49,0.590361446,1
2028,11,2,6,0,58,0,855,0,0,0,0,0,1,0,0,0,8,6,2,0,0,0,0,0,4,4,33,106,-0.0021058,-0.02537487,-0.36885428,-0.01751101,0.14715199,-0.34982243,0.57860271,0.11527853,0.02798029,0.06704042,-0.03584687,0.15233916,0.1892004,-0.09098468,0.52908316,0.49758866,-0.41372105,0.14588097,-0.20477457,-0.13074177,0.05834068,-0.44471362,-0.22684578,0.15609662,0.03416762,0.89348084,-0.32726113,0.67652138,-0.27200786,-0.0113626,-0.36667676,-0.3473435,-0.39287669,-0.40092606,-0.12138682,-0.60872521,-0.21117982,0.0578261,-0.06401574,0.0133449,-0.03991121,0.58705462,-0.01633656,-0.28050928,-0.18308801,0.18757187,-0.4712865,0.31275963,-0.1099975,-1.03816378,0.36324477,0.28411797,-0.37146443,0.07945248,-0.03305115,0.2049657,-0.3121129,-0.29218967,0.49746821,-0.2162561,0.18802433,0.44852406,0.08284998,-0.48552562,-0.14929986,-0.18835612,-0.31049526,-0.12923877,-0.09407888,0.26324523,-0.16754872,-0.00544818,0.23605793,0.80854503,0.25113875,0.11320908,-0.39555379,-0.41292747,0.28421474,-0.46949906,0.24665382,0.0613229,-0.75165245,0.36646618,-0.45370484,-0.06294955,0.34612605,0.30626178,-0.58624043,0.05793478,0.2289379,-0.05326538,-0.13523138,-0.17755579,-0.16631893,0.37283204,-0.07129622,0.26870309,-0.15825702,-0.47265029,191,12,11,0.916666667,1
1872,10,23,4,19,12,7,7,0,0,0,0,0,1,0,0,0,1,1,0,0,1,0,0,0,1,1,7,7,-0.1635328,-0.08999541,-0.21478275,0.38493725,0.05064584,-0.3441217,0.54644413,0.40638859,-0.2901952,0.1490464,-0.02119717,-0.01228084,0.17773483,-0.68293273,0.06559216,0.52311403,-0.7200089,-0.08700894,-0.0470072,0.04306932,0.08393133,-0.25311664,-0.13389416,0.0821914,0.21594143,0.55393175,-0.18602549,0.25533592,-0.32677564,0.14962327,-0.18081244,-0.08103549,-0.2752051,-0.66111874,-0.07835166,-0.08082618,-0.35170921,-0.17119889,-0.08618206,0.01753842,-0.27262426,0.28433412,0.1419038,-0.14131734,-0.10766162,0.44137051,-0.31013594,-0.19407387,0.07939043,-0.91955251,0.08423707,0.52487629,-0.52106335,0.00529257,0.13978138,0.14026059,-0.37410425,-0.4280332,0.71512695,0.1794159,0.2463803,0.39762467,0.21105353,-0.63414942,-0.2903586,-0.40857344,-0.41538576,-0.28786894,-0.12840323,0.15690059,0.07960153,0.20975262,-0.176198,0.64032351,0.23696126,0.33195478,-0.20051135,-0.55559644,-0.0109477,-0.25223969,0.3771533,0.12225728,-0.51907161,0.24863413,-0.21203151,-0.04858092,-0.0031266,0.65586659,-0.77558601,0.28331077,0.0044622,-0.07863149,-0.36146644,0.10988408,0.12858328,0.09584579,-0.31601913,-0.19819996,-0.25302322,-0.32406665,67,240,91,0.379166667,0
1447,10,9,4,0,45,8,1936,0,1,0,1,0,1,0,0,1,15,5,3,1,1,0,0,6,12,12,31,57,0.01607167,0.23092927,-0.0715295,0.1653581,0.19925704,-0.33843479,0.4216515,-0.2005392,0.09911276,0.0644391,-0.03132052,0.25661197,0.1697237,-0.41763764,0.29750883,0.34531632,-0.11810851,0.11102449,-0.63983558,-0.06646053,-0.33504244,-0.42135673,0.14203299,0.13394585,0.09796912,0.81404034,-0.32762976,0.17796741,-0.15969248,0.45108322,-0.07591223,-0.20619883,-0.24328897,-0.29831134,-0.20567001,0.06642232,0.28632718,0.01105078,-0.06876206,-0.17182031,0.04637495,0.30995995,0.27118647,-0.25838513,0.07985015,0.08033396,-0.48865308,0.20288899,0.03055665,-0.7114929,0.3290795,0.08998824,-0.06892437,0.2172522,-0.17684573,-0.09023704,-0.14814085,-0.48602093,0.28071318,-0.11420123,0.4095764,0.13586861,0.01972373,-0.17259169,0.04555782,0.02935569,-0.43629098,-0.11297964,0.15745793,0.6155558,-0.13241481,-0.14649444,0.18426117,0.59367042,0.06868551,-0.23340525,-0.52848114,-0.41291575,0.45558129,-0.10301244,0.46421141,0.01886798,-0.60523356,0.52870639,-0.20537179,0.08070984,0.11269363,0.48072127,-0.5062418,0.13237248,-0.00391532,-0.31917968,0.05495785,-0.15355008,0.09572658,0.20014398,-0.23498012,0.22415326,-0.18448965,-0.02129506,1816,222,78,0.351351351,0
190,7,9,3,20,49,118,1757,0,0,1,1,1,1,0,0,1,19,8,3,0,0,0,0,8,7,7,9,9,0.09108749,0.04155666,-0.09713989,0.02685742,0.25763114,-0.41723832,0.58080229,0.03634135,-0.29250306,0.11916907,-0.21732467,0.30311329,0.58185362,-0.51540787,0.63907794,0.41134964,-0.27549127,0.3758876,-0.34146975,0.14292512,-0.46519678,-0.64280806,0.02540231,0.33535399,0.16045019,1.11119069,-0.36882696,0.68846305,0.10193417,0.58092864,-0.21165494,-0.32318259,-0.29095686,-0.23782752,-0.25490879,-0.07486678,0.10791459,-0.04996325,-0.1609801,-0.22864331,0.27682275,0.2898518,0.23286397,-0.38644003,0.1468886,0.14553245,-0.48097418,0.24438672,-0.05069853,-0.59269,0.24577879,0.0060178,-0.36808539,0.16494096,-0.24151465,-0.07058963,-0.03787192,-0.49982508,0.19741939,-0.10854952,0.60919806,0.30196813,0.14022879,-0.14691315,0.03157591,0.05134397,-0.33414477,-0.007235,-0.15489323,0.47240636,-0.14451359,-0.15614633,0.18079662,0.84760684,0.32366085,-0.21497079,-0.42941303,-0.31045152,0.39234449,-0.41256683,0.41287711,0.25096816,-0.48787563,0.2450804,-0.2225841,-0.12129324,0.13392586,0.61207421,-0.54495494,0.24228379,0.13877849,-0.56660988,0.090281,-0.22621798,0.22235023,0.07753,-0.02785953,0.33135519,-0.19764183,-0.18750795,7,90,42,0.466666667,1
375,8,1,5,22,26,30,1273,0,0,1,0,0,1,0,0,1,66,0,0,65,0,0,0,1,1,1,8,8,0.05583974,-0.04932145,0.03902304,0.30905341,0.11273239,-0.32385303,0.30846239,0.10553605,-0.23602294,0.23032149,-0.01497882,0.16763392,0.41571064,-0.45518188,0.26733422,0.27981108,-0.18305538,0.26729656,-0.36178324,-0.02240307,-0.18581914,-0.4141421,-0.13615538,0.27207188,0.09953645,0.48622915,0.02463369,0.05904146,-0.12080104,0.33819587,-0.24403587,-0.17770046,-0.07709114,-0.27801082,-0.11193601,0.14549043,0.08670735,-0.22073873,-0.09803701,-0.16674404,0.06933512,0.33429271,0.42184363,-0.22422043,0.09575897,0.41888233,-0.3169575,0.13011922,0.11374293,-0.52579318,0.24290005,0.13391801,-0.25462265,0.20874342,-0.0228777,0.09118968,-0.47227341,-0.57695366,0.40531903,0.1225901,0.61019355,0.18475568,0.13367907,-0.31900191,-0.28917857,-0.03885084,-0.29472234,-0.25534201,-0.09952954,0.40794726,-0.23414629,-0.14965869,-0.10660995,0.76124436,0.22156897,-0.02697909,-0.36158304,-0.48003971,0.22784151,-0.37246779,0.32478069,0.03146264,-0.52187733,0.40633622,-0.26248825,-0.00835462,0.09921177,0.60684386,-0.67277025,0.17042872,0.16052526,-0.47938478,0.05534561,-0.02162563,0.40657274,0.15305639,-0.20852176,-0.0673965,-0.32642351,-0.21816036,1441,8,1,0.125,1
323,7,23,3,0,49,42,95,0,0,0,0,0,1,0,0,0,6,4,0,0,0,0,0,2,6,6,22,22,-0.02869042,0.39407051,-0.17408189,0.16002141,0.32636861,-0.49240576,0.58362636,0.09795416,-0.1759057,0.01446067,-0.4535287,0.28938409,0.48218917,-0.30642257,0.38155809,0.32012013,-0.40950826,0.12314635,-0.48236698,-0.01679056,-0.24290458,-0.57517944,-0.15024535,0.33641584,0.32354595,0.73207109,-0.49257,0.69804759,-0.15595342,0.26620586,-0.14320234,-0.04496564,-0.19729764,-0.35505777,-0.21343094,-0.34417856,0.00744949,0.01612591,-0.02498032,-0.06714293,0.08541842,0.4458061,0.01749178,-0.34760885,0.0109146,0.22123558,-0.66061703,0.13963133,0.08542586,-0.57914874,0.20776725,0.3100406,-0.45060349,0.0470744,-0.08384737,0.02881409,-0.13287605,-0.4139564,0.01031712,0.04136676,0.42650272,0.35746427,0.04929157,-0.29480718,-0.05497868,0.02495541,-0.4070906,-0.15617169,-0.22723694,0.31335373,0.13297916,-0.12352411,0.1751047,0.5165232,0.22037425,0.01708387,-0.21139218,-0.53814152,-0.02484456,-0.46461851,0.35821274,0.06395626,-0.37237678,0.17725919,-0.30396617,-0.11606183,-0.00300604,0.34272145,-0.43957793,0.30082053,0.08239777,-0.33619293,-0.04794658,-0.2277338,0.11446423,0.02363098,-0.00270287,0.30797552,-0.16370009,-0.26143033,708,28,21,0.75,0
247,7,16,3,15,4,12,12,0,0,1,0,0,1,0,0,1,3,0,0,0,0,0,0,3,3,3,3,3,-0.071074231,0.177742837,-0.366017042,0.38540077,-0.094025089,-0.490921915,0.391833961,0.18346196,-0.215791465,0.179877526,-0.284867702,0.107295483,0.232024351,-0.614954676,0.0007179,0.268146232,-0.503992946,-0.088923643,-0.402754273,-0.089168376,-0.231852178,-0.172668261,-0.121770617,0.014649093,0.043418001,0.331070153,0.034252629,-0.199155646,-0.347472737,0.308173008,-0.115897863,0.066774999,-0.234948747,-0.498702798,-0.1195403,0.085298702,-0.177552578,-0.172407411,-0.176296685,-0.214457244,-0.178075779,0.391154569,0.361329634,-0.036504732,-0.137619216,0.289582852,-0.301778401,-0.05615737,0.080010751,-0.748281397,0.060518159,0.332804002,-0.390328279,-0.083694322,0.151119719,0.068188155,-0.321784185,-0.526979851,0.670985889,0.070840993,0.334368613,0.351073116,0.065060471,-0.441169607,-0.573516339,-0.345310512,-0.539816732,-0.520052304,-0.059513641,0.42123908,-0.076540978,0.263483133,-0.184020787,0.668079641,0.13922208,0.160204257,-0.278439917,-0.677326445,-0.019166036,-0.397916231,0.506770894,0.080427812,-0.376449357,0.438796261,-0.262414047,0.026019536,-0.079671357,0.646597972,-0.705402944,0.186963644,0.143153861,-0.317489222,-0.06151269,-0.019005062,0.277907162,0.094602577,-0.314062491,-0.08482974,-0.274622568,-0.246004224,4,231,94,0.406926407,0
175,7,5,6,23,56,173,0,0,0,1,0,0,1,0,0,1,1,0,0,0,0,0,0,1,1,1,1,1,0.01967382,-0.0219071,0.42017807,0.80035898,0.04819691,-0.42122331,0.55804298,0.08735023,-0.30426103,0.32171096,0.33461644,-0.12556979,0.44495795,-0.94308328,0.33092186,0.27816153,-0.31909704,0.30224098,-0.42993391,-0.14709261,-0.00577201,-0.4614942,-0.0288331,0.47157832,0.23300607,0.44233484,0.23524316,-0.46014649,-0.38032057,0.65252526,-0.18829792,-0.01324956,0.10852602,-0.37249917,-0.1275195,0.59940328,-0.11023608,-0.37767433,0.04304413,-0.27159115,-0.06330028,-0.00195407,0.72241458,-0.04826757,0.01968508,0.47442559,0.03500381,-0.0071946,0.07756602,-0.43407832,0.0526857,0.31343546,-0.08974697,0.46036261,-0.07373727,-0.00983409,-0.65179069,-0.43517107,0.40508544,0.34082332,0.50708342,-0.1550153,0.2001208,-0.23563997,-0.32485736,-0.08440522,-0.4927038,-0.27404985,-0.06670215,0.37203526,-0.13328648,-0.151999,-0.39384391,0.61702301,0.11095423,-0.28976871,-0.17600336,-0.59033121,0.12656451,-0.44332706,0.40854679,-0.10917625,-0.60395287,0.43107897,-0.24198638,0.02103979,-0.18365245,0.76991423,-0.71919336,0.41157585,0.15361833,-0.69054803,0.29158854,-0.12503213,0.65237808,0.3907859,-0.45207802,-0.45626941,-0.46713015,-0.43018966,1,365,52,0.142465753,0
177,7,8,2,16,59,391,61,0,0,1,1,0,1,1,0,1,6,0,4,0,0,0,0,2,3,3,6,6,-0.05710088,0.27954072,-0.30627593,0.01738371,0.44263091,-0.54905729,0.53547367,-0.1212697,0.09894764,-0.04137274,-0.10741893,0.40540711,0.30629352,-0.42049477,0.49462289,0.27867755,-0.18832667,0.218647,-0.51108426,0.06892043,-0.32295154,-0.61702275,0.05001081,0.22261,0.1370784,1.14438526,-0.5939569,0.7893332,0.10587175,0.40631041,-0.02436144,-0.30113602,-0.48134194,-0.5156843,-0.37544257,-0.25351892,0.34350835,0.03634479,-0.18752256,-0.08521818,0.15029225,0.34859539,0.24609846,-0.42228562,-0.08038996,0.03761512,-0.70873942,0.21089471,0.12269925,-0.83405355,0.45384344,0.14782567,-0.35179535,0.10390001,-0.15348422,-0.14938926,0.12695005,-0.63550801,0.22526506,-0.06030043,0.51033469,0.26433253,0.01631405,-0.23143684,0.25354364,-0.03988033,-0.35196385,0.11394191,-0.00256395,0.5339075,-0.11415208,-0.26178024,0.30471522,0.65644878,0.19350262,-0.13765285,-0.61417806,-0.25140039,0.46855445,-0.07379616,0.33185995,0.15946954,-0.63666647,0.36262608,-0.02219037,-0.04704063,0.16273702,0.450525,-0.51300019,0.28809621,-0.16715098,-0.45938208,0.00673219,-0.16668288,0.06035717,0.01063654,-0.16148427,0.40997479,-0.13475352,0.14706733,7,90,42,0.466666667,0
103,6,27,4,22,31,0,173,1,0,1,0,0,1,0,0,1,1,0,0,0,0,0,0,1,0,0,0,0,0.03576503,-0.00638687,-0.01443801,0.40302776,0.03039705,-0.37632987,0.33870875,0.10510403,-0.27853532,0.31395482,-0.00320221,0.08556224,0.2759852,-0.53162928,0.22146069,0.22768153,-0.261846,0.17631202,-0.36661555,-0.0902235,-0.27772474,-0.33485462,-0.03150491,0.15945852,0.10588578,0.5089794,0.09970595,-0.15904851,-0.22680352,0.44165171,-0.16896295,-0.0597255,-0.14244243,-0.35499372,-0.11137599,0.36964155,-0.09769052,-0.17941521,-0.13279081,-0.28738399,0.008549,0.29845381,0.51086235,-0.15939671,-0.00657952,0.30731022,-0.14460355,0.00494094,0.06235564,-0.58002696,0.06551003,0.23559604,-0.25304746,0.05900863,-0.07463519,0.01139198,-0.47399305,-0.48640436,0.47522232,0.10085123,0.44959583,0.21520704,0.16781126,-0.22507748,-0.39424726,-0.10855649,-0.44905721,-0.36750788,-0.06068618,0.45312097,-0.04495033,0.05124768,-0.25643452,0.68743304,0.13686318,-0.10275846,-0.2422992,-0.56554503,0.10746927,-0.4333827,0.46781224,0.0900254,-0.43729032,0.40795075,-0.28951909,-0.07541051,-0.09178822,0.60460486,-0.64796336,0.20930159,0.23593343,-0.39852195,0.06248209,0.037293,0.35708705,0.17804708,-0.27100847,-0.08997953,-0.23799276,-0.41379622,1,365,52,0.142465753,0
