type,p,r,f1,auc
refactoring,0.8571428571428571,0.631578947368421,0.7272727272727273,0.849624060150376
refactoring,0.6190476190476191,0.5909090909090909,0.6046511627906977,0.672979797979798
refactoring,0.6875,0.5238095238095238,0.5945945945945946,0.7431077694235589
refactoring,0.9230769230769231,0.5217391304347826,0.6666666666666667,0.7979539641943734
refactoring,0.8461538461538461,0.5,0.6285714285714286,0.8042929292929293
refactoring,0.7222222222222222,0.5909090909090909,0.65,0.7588383838383839
refactoring,0.7894736842105263,0.7142857142857143,0.7500000000000001,0.8245614035087719
refactoring,0.75,0.5454545454545454,0.631578947368421,0.8005050505050505
refactoring,0.7333333333333333,0.5,0.5945945945945945,0.7222222222222222
refactoring,0.9444444444444444,0.68,0.7906976744186047,0.8693333333333333
refactoring,0.6842105263157895,0.65,0.6666666666666667,0.75125
refactoring,0.6666666666666666,0.5217391304347826,0.5853658536585366,0.6943734015345269
refactoring,0.7142857142857143,0.625,0.6666666666666666,0.7890625
refactoring,0.9,0.5,0.6428571428571429,0.9141414141414141
refactoring,0.5714285714285714,0.42105263157894735,0.48484848484848486,0.7380952380952381
refactoring,0.5882352941176471,0.5555555555555556,0.5714285714285715,0.6565656565656566
refactoring,0.625,0.625,0.625,0.7213541666666666
refactoring,0.9333333333333333,0.6666666666666666,0.7777777777777778,0.899749373433584
refactoring,0.8125,0.5909090909090909,0.6842105263157896,0.8055555555555556
refactoring,0.7368421052631579,0.8235294117647058,0.7777777777777778,0.8695652173913043
refactoring,0.7333333333333333,0.5238095238095238,0.611111111111111,0.7155388471177945
refactoring,0.7222222222222222,0.6842105263157895,0.7027027027027027,0.7969924812030075
refactoring,0.7647058823529411,0.6190476190476191,0.6842105263157895,0.7844611528822055
refactoring,0.7,0.6666666666666666,0.6829268292682926,0.7468671679197995
refactoring,0.7692307692307693,0.5555555555555556,0.6451612903225806,0.7651515151515151
refactoring,0.9166666666666666,0.5789473684210527,0.7096774193548387,0.8909774436090225
refactoring,0.6842105263157895,0.5909090909090909,0.6341463414634148,0.6994949494949495
refactoring,0.7857142857142857,0.5238095238095238,0.6285714285714286,0.8107769423558897
refactoring,0.7222222222222222,0.5909090909090909,0.65,0.7550505050505051
refactoring,0.8461538461538461,0.6111111111111112,0.7096774193548387,0.8005050505050505
refactoring,0.7894736842105263,0.75,0.7692307692307692,0.85125
refactoring,0.8235294117647058,0.6666666666666666,0.7368421052631577,0.8132832080200502
refactoring,0.6363636363636364,0.3333333333333333,0.43749999999999994,0.7005012531328321
refactoring,0.6875,0.5,0.5789473684210527,0.7361111111111112
refactoring,0.625,0.5555555555555556,0.5882352941176471,0.7171717171717171
refactoring,0.7,0.3181818181818182,0.4375,0.6742424242424242
refactoring,0.7142857142857143,0.5,0.588235294117647,0.695
refactoring,0.75,0.47368421052631576,0.5806451612903226,0.8345864661654135
refactoring,0.8,0.5454545454545454,0.6486486486486486,0.7159090909090909
refactoring,0.6153846153846154,0.47058823529411764,0.5333333333333333,0.7122762148337596
refactoring,0.6923076923076923,0.47368421052631576,0.5625,0.7581453634085213
refactoring,0.7333333333333333,0.5238095238095238,0.611111111111111,0.7907268170426065
refactoring,0.6428571428571429,0.5625,0.6000000000000001,0.73828125
refactoring,0.5555555555555556,0.625,0.5882352941176471,0.7669270833333334
refactoring,0.5833333333333334,0.4375,0.5,0.6979166666666666
refactoring,0.7058823529411765,0.48,0.5714285714285713,0.6186666666666667
refactoring,0.7142857142857143,0.5263157894736842,0.6060606060606061,0.7243107769423559
refactoring,0.8235294117647058,0.56,0.6666666666666666,0.78
refactoring,0.7777777777777778,0.7777777777777778,0.7777777777777778,0.8674242424242424
refactoring,0.6111111111111112,0.6470588235294118,0.6285714285714287,0.7365728900255755
