type,p,r,f1,auc
others,0.6909090909090909,0.4222222222222222,0.5241379310344827,0.7620675316034597
others,0.5597014925373134,0.4143646408839779,0.47619047619047616,0.7268926384948484
others,0.6190476190476191,0.42162162162162165,0.5016077170418006,0.7372710096114351
others,0.6363636363636364,0.44,0.5202702702702702,0.7571091445427729
others,0.6201550387596899,0.42328042328042326,0.5031446540880503,0.7425478225478226
others,0.6187050359712231,0.44329896907216493,0.5165165165165165,0.7605670103092783
others,0.6434782608695652,0.387434554973822,0.48366013071895425,0.7361775241923719
others,0.6142857142857143,0.4648648648648649,0.5292307692307692,0.7444097593033763
others,0.6095238095238096,0.38095238095238093,0.46886446886446886,0.7424132947976878
others,0.6,0.4076086956521739,0.48543689320388345,0.7387598814229249
others,0.6691729323308271,0.4635416666666667,0.5476923076923077,0.7564295419254659
others,0.6015625,0.41847826086956524,0.4935897435897436,0.7408843873517786
others,0.5925925925925926,0.36363636363636365,0.4507042253521127,0.7347027972027972
others,0.609375,0.4105263157894737,0.49056603773584906,0.7251299545159194
others,0.5508474576271186,0.33505154639175255,0.41666666666666663,0.7021826675257732
others,0.6548672566371682,0.3978494623655914,0.4949832775919732,0.7445990689745607
others,0.6390977443609023,0.44502617801047123,0.5246913580246914,0.7459760426628629
others,0.640625,0.45054945054945056,0.5290322580645163,0.7524990070170793
others,0.6347826086956522,0.4010989010989011,0.4915824915824916,0.753897457963723
others,0.6204379562043796,0.47752808988764045,0.5396825396825398,0.7637356206527555
others,0.6481481481481481,0.36649214659685864,0.46822742474916385,0.7249687971082619
others,0.6578947368421053,0.41208791208791207,0.5067567567567568,0.7627515556732424
others,0.5929203539823009,0.39644970414201186,0.475177304964539,0.7107194923248435
others,0.6065573770491803,0.4111111111111111,0.4900662251655629,0.7370425815036593
others,0.5983606557377049,0.3882978723404255,0.4709677419354839,0.7183216942957839
others,0.4859154929577465,0.41818181818181815,0.4495114006514658,0.6920639055309542
others,0.6016260162601627,0.40437158469945356,0.4836601307189543,0.727081372888911
others,0.5511811023622047,0.3977272727272727,0.46204620462046203,0.7168420521785906
others,0.6198347107438017,0.4032258064516129,0.48859934853420195,0.7545895620246525
others,0.6384615384615384,0.4797687861271676,0.5478547854785478,0.808799349075314
others,0.5625,0.35795454545454547,0.43750000000000006,0.7153711672942442
others,0.5739130434782609,0.39759036144578314,0.4697508896797153,0.7341001938789641
others,0.5793103448275863,0.5029940119760479,0.5384615384615385,0.7674334328461233
others,0.5609756097560976,0.3854748603351955,0.45695364238410596,0.724355874259985
others,0.6165413533834586,0.45054945054945056,0.5206349206349207,0.7420064874884152
others,0.6018518518518519,0.3551912568306011,0.44673539518900346,0.7331566869727436
others,0.583941605839416,0.46511627906976744,0.517799352750809,0.742375560995512
others,0.5769230769230769,0.4166666666666667,0.48387096774193544,0.709522621423819
others,0.6212121212121212,0.4659090909090909,0.5324675324675324,0.7375773265196343
others,0.5945945945945946,0.4808743169398907,0.5317220543806647,0.7689812292605617
others,0.5725806451612904,0.4152046783625731,0.48135593220338985,0.7354270028813531
others,0.6594202898550725,0.48148148148148145,0.5565749235474007,0.7653398453398453
others,0.5658914728682171,0.4269005847953216,0.48666666666666664,0.7663887610181918
others,0.6138613861386139,0.3315508021390374,0.4305555555555556,0.7359646110320692
others,0.5826771653543307,0.4157303370786517,0.4852459016393442,0.7344418806848582
others,0.6328125,0.4764705882352941,0.5436241610738255,0.7695280437756498
others,0.5794392523364486,0.34444444444444444,0.43205574912891986,0.7089071856287426
others,0.5384615384615384,0.4,0.45901639344262296,0.7166287399915718
others,0.5905511811023622,0.42134831460674155,0.4918032786885246,0.7147873194221509
others,0.616,0.4350282485875706,0.5099337748344371,0.7379419604687422
