deprecated,0.578125,0.3978494623655914,0.47133757961783435,0.7043010752688172
deprecated,0.578125,0.3978494623655914,0.47133757961783435,0.7043010752688172
deprecated,0.578125,0.3978494623655914,0.47133757961783435,0.7043010752688172
deprecated,0.578125,0.3978494623655914,0.47133757961783435,0.7043010752688172
deprecated,0.578125,0.3978494623655914,0.47133757961783435,0.7043010752688172
deprecated,0.578125,0.3978494623655914,0.47133757961783435,0.7043010752688172
deprecated,0.578125,0.3978494623655914,0.47133757961783435,0.7043010752688172
deprecated,0.578125,0.3978494623655914,0.47133757961783435,0.7043010752688172
deprecated,0.578125,0.3978494623655914,0.47133757961783435,0.7043010752688172
deprecated,0.578125,0.3978494623655914,0.47133757961783435,0.7043010752688172
