others,0.6333333333333333,0.42696629213483145,0.5100671140939598,0.7546900080256822
others,0.6333333333333333,0.42696629213483145,0.5100671140939598,0.7546900080256822
others,0.6333333333333333,0.42696629213483145,0.5100671140939598,0.7546900080256822
others,0.6333333333333333,0.42696629213483145,0.5100671140939598,0.7546900080256822
others,0.6333333333333333,0.42696629213483145,0.5100671140939598,0.7546900080256822
others,0.6333333333333333,0.42696629213483145,0.5100671140939598,0.7546900080256822
others,0.6333333333333333,0.42696629213483145,0.5100671140939598,0.7546900080256822
others,0.6333333333333333,0.42696629213483145,0.5100671140939598,0.7546900080256822
others,0.6333333333333333,0.42696629213483145,0.5100671140939598,0.7546900080256822
others,0.6333333333333333,0.42696629213483145,0.5100671140939598,0.7546900080256822
