resource,0.6744186046511628,0.37662337662337664,0.48333333333333334,0.7700652841781874
resource,0.6744186046511628,0.37662337662337664,0.48333333333333334,0.7700652841781874
resource,0.6744186046511628,0.37662337662337664,0.48333333333333334,0.7700652841781874
resource,0.6744186046511628,0.37662337662337664,0.48333333333333334,0.7700652841781874
resource,0.6744186046511628,0.37662337662337664,0.48333333333333334,0.7700652841781874
resource,0.6744186046511628,0.37662337662337664,0.48333333333333334,0.7700652841781874
resource,0.6744186046511628,0.37662337662337664,0.48333333333333334,0.7700652841781874
resource,0.6744186046511628,0.37662337662337664,0.48333333333333334,0.7700652841781874
resource,0.6744186046511628,0.37662337662337664,0.48333333333333334,0.7700652841781874
resource,0.6744186046511628,0.37662337662337664,0.48333333333333334,0.7700652841781874
