multiple,0.6962025316455697,0.3716216216216216,0.4845814977973568,0.7459234234234234
multiple,0.6962025316455697,0.3716216216216216,0.4845814977973568,0.7459234234234234
multiple,0.6962025316455697,0.3716216216216216,0.4845814977973568,0.7459234234234234
multiple,0.6962025316455697,0.3716216216216216,0.4845814977973568,0.7459234234234234
multiple,0.6962025316455697,0.3716216216216216,0.4845814977973568,0.7459234234234234
multiple,0.6962025316455697,0.3716216216216216,0.4845814977973568,0.7459234234234234
multiple,0.6962025316455697,0.3716216216216216,0.4845814977973568,0.7459234234234234
multiple,0.6962025316455697,0.3716216216216216,0.4845814977973568,0.7459234234234234
multiple,0.6962025316455697,0.3716216216216216,0.4845814977973568,0.7459234234234234
multiple,0.6962025316455697,0.3716216216216216,0.4845814977973568,0.7459234234234234
